[
  {
    "id": 1,
    "serialNumber": 123,
    "name": "Three Hearts and Three Lions",
    "authors": "Poul Anderson",
    "bookQty": 20,
    "bookQtyCopy": 20
  },
  {
    "id": 2,
    "serialNumber": 223,
    "name": "Alice's Adventures in Wonderland",
    "authors": "Lewis Carroll",
    "bookQty": 20,
    "bookQtyCopy": 20
  },
  {
    "id": 3,
    "serialNumber": 222,
    "name": "The Lion, the Witch and the Wardrobe",
    "authors": "C.S. Lewis",
    "bookQty": 20,
    "bookQtyCopy": 20
  },
  {
    "id": 4,
    "serialNumber": 234,
    "name": "The Lord of the Rings Trilogy",
    "authors": "J.R.R. Tolkien",
    "bookQty": 20,
    "bookQtyCopy": 20
  }
]